…
``` r
unsolved = 
  homicide_df %>% 
  group_by(city_state) %>% 
  summarize(unsolved = sum(resolve == "unsolved"),
            total_number = n()) 
unsolved
```

    ## # A tibble: 50 × 3
    ##    city_state     unsolved total_number
    ##    <chr>             <int>        <int>
    ##  1 Albuquerque,NM      146          378
    ##  2 Atlanta,GA          373          973
    ##  3 Baltimore,MD       1825         2827
    ##  4 Baton Rouge,LA      196          424
    ##  5 Birmingham,AL       347          800
    ##  6 Boston,MA           310          614
    ##  7 Buffalo,NY          319          521
    ##  8 Charlotte,NC        206          687
    ##  9 Chicago,IL         4073         5535
    ## 10 Cincinnati,OH       309          694
    ## # … with 40 more rows
…
sim_test =
  rerun(5000, estimate_test(mu = 0)) %>% 
  bind_rows()%>% 
  mutate(
    mu_hat = pull(t_test,estimate),
    p_value = pull(t_test,p.value)) %>% 
  select(-t_test)

sim_test
```

    ## # A tibble: 5,000 × 2
    ##    mu_hat p_value
    ##     <dbl>   <dbl>
    ##  1 -0.357  0.655 
    ##  2  1.03   0.189 
    ##  3 -0.965  0.462 
    ##  4 -0.704  0.370 
    ##  5  1.27   0.185 
    ##  6  1.62   0.0655
    ##  7 -2.09   0.0638
    ##  8  0.341  0.785 
    ##  9 -1.32   0.0895
    ## 10  0.128  0.859 
    ## # … with 4,990 more rows
…
sim_test1
```

    ## # A tibble: 35,000 × 3
    ##       mu  mu_hat p_value
    ##    <dbl>   <dbl>   <dbl>
    ##  1     0  1.12    0.245 
    ##  2     0  0.120   0.890 
    ##  3     0 -0.0637  0.947 
    ##  4     0  0.404   0.639 
    ##  5     0  0.555   0.588 
    ##  6     0  0.827   0.331 
    ##  7     0 -1.96    0.0250
    ##  8     0 -0.655   0.579 
    ##  9     0  0.0532  0.946 
    ## 10     0  0.0624  0.941 
    ## # … with 34,990 more rows
…
